<svg width="14" height="14" viewBox="0 0 14 14" fill="none" xmlns="http://www.w3.org/2000/svg">
<path d="M7 12.8333C3.77834 12.8333 1.16666 10.2217 1.16666 7C1.16666 3.77834 3.77834 1.16666 7 1.16666C10.2217 1.16666 12.8333 3.77834 12.8333 7C12.8298 10.2202 10.2202 12.8298 7 12.8333ZM7 2.33333C4.42267 2.33333 2.33333 4.42267 2.33333 7C2.33333 9.57733 4.42267 11.6667 7 11.6667C9.57733 11.6667 11.6667 9.57733 11.6667 7C11.6638 4.42387 9.57613 2.33622 7 2.33333ZM9.91667 7.58333H6.41666V4.08333H7.58333V6.41666H9.91667V7.58333Z" fill="white"/>
</svg>
